File, Total Count, Cell Count, Doublet Count, Cell Size Mean
001, 2288, 2062, 93, 4.7336972109921325
006, 2600, 2195, 107, 4.474215745192308
007, 2600, 2390, 112, 3.5057970252403847
008, 2756, 2109, 448, 3.3389408903301887
009, 2652, 1310, 1131, 3.38056110364819
