File, Total Count, Cell Count, Doublet Count, Cell Size Mean
001, 1976, 1434, 78, 4.103851194806427
002, 2236, 1743, 72, 3.72099399737254
003, 2548, 2072, 115, 3.4608573973459578
004, 2912, 2365, 135, 3.0418768243475274
005, 3900, 3341, 188, 2.5931921073717947