File, Total Count, Cell Count, Doublet Count, FSC Mean, FSC CV, FSC MAD, SSC Mean, SSC CV, SSC MAD
001, 50336, 45805, 3136, 46212.50867124819, 0.0037514632122329344, 11798.526224151634, 3616.9451598674705, 0.003811458300748702, 1002.8751206125577
002, 53716, 49197, 3420, 45763.43846773916, 0.004004903152583516, 11859.350344858743, 3579.7558699984943, 0.004864250533946931, 1016.5690991711655
003, 51896, 47662, 3303, 45175.31953775741, 0.0037976312570336297, 11472.79682689105, 3525.500009738835, 0.004427932635379187, 986.2337231242468
004, 53976, 49725, 3484, 44938.27295052476, 0.0035727144574454134, 11266.631645181309, 3484.8274002263915, 0.003957379761459027, 963.9832448265264
005, 53040, 48912, 3369, 44577.43456829596, 0.0037404950118789006, 11130.72228285141, 3448.3547690868536, 0.004161510950470314, 951.1584897875825
006, 50596, 46686, 3168, 44518.344305437444, 0.0036117982635443164, 11169.014206656238, 3439.745100389301, 0.003856646527793025, 955.7762029419285
007, 56368, 52017, 3545, 44395.87754401506, 0.003761215085099553, 11304.890172999332, 3442.825831331518, 0.004193219737992967, 965.6013960129621
008, 55848, 51476, 3582, 44441.56619233053, 0.003641057796812598, 11202.485245741038, 3414.5257768493884, 0.0037380968267426884, 951.7663578297562
009, 55172, 51070, 3377, 44196.69339663429, 0.003460068792285413, 11077.665428348957, 3420.0692538800527, 0.004034849699487409, 947.5254619358616
010, 53768, 49634, 3376, 44041.44847736604, 0.0034438466436901268, 11115.109986035279, 3383.899818552911, 0.003527594813907474, 939.2387413783938
011, 57928, 53512, 3644, 44338.30767943624, 0.003642481788664736, 11263.043653066426, 3402.937760485254, 0.004021388156892773, 955.1145083084825
012, 54600, 50365, 3541, 44080.71713564223, 0.003573993525099802, 11040.219705408332, 3376.0418026022344, 0.003803026129620762, 932.4989590830686
013, 50024, 46157, 3175, 44021.78166219921, 0.003672350614598912, 11161.627698585127, 3380.9949015736734, 0.004137942741208123, 947.3593751242997
014, 54288, 50172, 3341, 43593.27223092795, 0.0034114254549466646, 11011.002854243901, 3364.3771862464023, 0.0035905589208032797, 936.2418598964873
015, 52468, 48463, 3195, 44040.484875291055, 0.003738492399906651, 11208.22648238089, 3400.3520105164093, 0.004019492211375341, 959.8458610484134
