Sample,Time,Temperature,Cells,Doublets
1,0,30,68104,1836
2,0,30,68509,1892
4,0,42,67458,1810
5,5,30,67620,1878
7,5,42,68269,1776
8,5,42,77904,2101
9,10,30,75466,2160
10,10,30,78298,2258
11,10,42,70174,2041
12,10,42,76274,2274
13,15,30,79810,2265
15,15,42,73681,2553
16,15,42,76161,2527