File, Total Count, Cell Count, Doublet Count, FSC CV
001, 1145076, 98058, 17554, 0.0023361672194653444
002, 904058, 148922, 44684, 0.0014546306467062159
003, 467828, 124418, 31986, 0.0012926663139917554
004, 262404, 65356, 11246, 0.001620015632023054
005, 211714, 30897, 4577, 0.0023688511573861227
006, 132904, 14982, 1906, 0.003400633530220549
007, 209050, 6946, 909, 0.0051005376634958586
008, 151478, 3647, 461, 0.006721623605209175
009, 88208, 1841, 202, 0.009931070881995692
010, 165168, 866, 116, 0.015370069148868992
011, 199726, 455, 55, 0.027014273499839727
012, 165094, 261, 27, 0.03984652909630194
013, 224590, 121, 11, 0.05798703690061739
014, 141192, 82, 5, 0.09397662652033105
015, 114552, 51, 5, 0.11008949496152967
016, 72890, 33, 7, 0.09961967808195477
017, 176786, 43, 4, 0.07944538551685333
018, 152588, 19, 2, 0.15175532123812063
019, 78958, 37, 0, 0.08352596492854666
020, 103378, 28, 0, 0.10571088894563488
000, 172346, 27, 1, 0.11038199953284661

