File, Total Count, Cell Count, Doublet Count, Cell Size Mean
001, 1248, 752, 13, 4.986094939403045
002, 572, 346, 8, 5.289356151660839
003, 988, 575, 13, 4.960040999810222
004, 936, 567, 29, 4.7724609375
005, 780, 532, 24, 4.930629006410256
