File, Total Count, Cell Count, Doublet Count, Cell Size Mean
106, 1456, 1020, 24, 5.309038434709821
107, 2184, 1599, 28, 4.880161830357143
008, 2028, 1504, 47, 5.159132015070266
009, 676, 336, 103, 5.399735490245932
010, 988, 581, 100, 5.008709000189778
